%YAML 1.1
%TAG !u! tag:unity3d.com,2011:
--- !u!114 &11400000
MonoBehaviour:
  m_ObjectHideFlags: 0
  m_CorrespondingSourceObject: {fileID: 0}
  m_PrefabInstance: {fileID: 0}
  m_PrefabAsset: {fileID: 0}
  m_GameObject: {fileID: 0}
  m_Enabled: 1
  m_EditorHideFlags: 0
  m_Script: {fileID: 11500000, guid: 1954c05edef100741b38b69e75c0a045, type: 3}
  m_Name: anglerfish
  m_EditorClassIdentifier: 
  allowSpawnOnDeep: {x: 400, y: 600}
  allowedMoveDirections: 0300000004000000
  fishSprite: {fileID: 21300000, guid: e630d20ed07dd88478c4b4f734ccd2b5, type: 3}
  fishSpeed: 0.45
  shouldFear: 1
  shouldStatic: 0
  fearRadius: 3
  size: {x: 0.976, y: 0.724}
