%YAML 1.1
%TAG !u! tag:unity3d.com,2011:
--- !u!114 &11400000
MonoBehaviour:
  m_ObjectHideFlags: 0
  m_CorrespondingSourceObject: {fileID: 0}
  m_PrefabInstance: {fileID: 0}
  m_PrefabAsset: {fileID: 0}
  m_GameObject: {fileID: 0}
  m_Enabled: 1
  m_EditorHideFlags: 0
  m_Script: {fileID: 11500000, guid: 1954c05edef100741b38b69e75c0a045, type: 3}
  m_Name: pirania_fish
  m_EditorClassIdentifier: 
  allowSpawnOnDeep: {x: 35, y: 380}
  allowedMoveDirections: 0300000004000000
  fishSprite: {fileID: 21300000, guid: 633aa59c05166d4449c29adcc8f5354f, type: 3}
  fishSpeed: 1.2
  shouldFear: 1
  shouldStatic: 0
  fearRadius: 15
  size: {x: 0.822, y: 0.495}
