%YAML 1.1
%TAG !u! tag:unity3d.com,2011:
--- !u!114 &11400000
MonoBehaviour:
  m_ObjectHideFlags: 0
  m_CorrespondingSourceObject: {fileID: 0}
  m_PrefabInstance: {fileID: 0}
  m_PrefabAsset: {fileID: 0}
  m_GameObject: {fileID: 0}
  m_Enabled: 1
  m_EditorHideFlags: 0
  m_Script: {fileID: 11500000, guid: 1954c05edef100741b38b69e75c0a045, type: 3}
  m_Name: seahorse
  m_EditorClassIdentifier: 
  allowSpawnOnDeep: {x: 2, y: 100}
  allowedMoveDirections: 0300000004000000
  fishSprite: {fileID: 21300000, guid: 38135361c0aab1044a32d13e6456e9fb, type: 3}
  fishSpeed: 0.25
  shouldFear: 0
  shouldStatic: 0
  fearRadius: 0
  size: {x: 0.38, y: 0.738}
